…
Let’s take a look at what this dataset looks like:

``` r
breastcancer
```

    ## # A tibble: 683 x 10
    ##    c.thick  size shape adhes sing.epith  bare bland  norm mitos class
    ##      <int> <int> <int> <int>      <int> <int> <int> <int> <int> <int>
    ##  1       5     1     1     1          2     1     3     1     1     0
    ##  2       5     4     4     5          7    10     3     2     1     0
    ##  3       3     1     1     1          2     2     3     1     1     0
    ##  4       6     8     8     1          3     4     3     7     1     0
    ##  5       4     1     1     3          2     1     3     1     1     0
    ##  6       8    10    10     8          7    10     9     7     1     1
    ##  7       1     1     1     1          2    10     3     1     1     0
    ##  8       2     1     2     1          2     1     3     1     1     0
    ##  9       2     1     1     1          2     1     1     1     5     0
    ## 10       4     2     1     1          2     1     2     1     1     0
    ## # ... with 673 more rows
…
We’ll be dividing our dataset into 70% of the observations for the train set and 30% of the observations as the test set.

``` r
set.seed(2387)
# create dataframe of train, test sets
tt.sets <- select(breastcancer, bare, c.thick, norm, size, class) %>% 
  crossv_mc(n = 100, test = 0.3) %>% 
  mutate(ind.tr = map(train, as.integer), 
         ind.te = map(test, as.integer), 
         train.s = map(train, as_data_frame), 
         test.s = map(test, as_data_frame))
tt.sets
```

    ## # A tibble: 100 x 7
    ##             train           test   .id      ind.tr      ind.te
    ##            <list>         <list> <chr>      <list>      <list>
    ##  1 <S3: resample> <S3: resample>   001 <int [478]> <int [205]>
    ##  2 <S3: resample> <S3: resample>   002 <int [478]> <int [205]>
    ##  3 <S3: resample> <S3: resample>   003 <int [478]> <int [205]>
    ##  4 <S3: resample> <S3: resample>   004 <int [478]> <int [205]>
    ##  5 <S3: resample> <S3: resample>   005 <int [478]> <int [205]>
    ##  6 <S3: resample> <S3: resample>   006 <int [478]> <int [205]>
    ##  7 <S3: resample> <S3: resample>   007 <int [478]> <int [205]>
    ##  8 <S3: resample> <S3: resample>   008 <int [478]> <int [205]>
    ##  9 <S3: resample> <S3: resample>   009 <int [478]> <int [205]>
    ## 10 <S3: resample> <S3: resample>   010 <int [478]> <int [205]>
    ## # ... with 90 more rows, and 2 more variables: train.s <list>,
    ## #   test.s <list>
…
