…
First look at the dataset
-------------------------

``` r
# View dataset
mrt.dt
```

    ## # A tibble: 294,528 x 8
    ##     year month   day station  hour entry  exit   net
    ##    <int> <int> <int> <ord>   <int> <int> <int> <int>
    ##  1  2012     1     1 ayala       1     0     0     0
    ##  2  2012     1     1 ayala       2     0     0     0
    ##  3  2012     1     1 ayala       3     0     0     0
    ##  4  2012     1     1 ayala       4     0     0     0
    ##  5  2012     1     1 ayala       5     0     0     0
    ##  6  2012     1     1 ayala       6     0     0     0
    ##  7  2012     1     1 ayala       7     0     0     0
    ##  8  2012     1     1 ayala       8   296   310   -14
    ##  9  2012     1     1 ayala       9   229   367  -138
    ## 10  2012     1     1 ayala      10   253   577  -324
    ## # ... with 294,518 more rows
…
