…
         mall.Ac = X3, 
         ash = X4, 
         alk.Ash = X5, 
         magnes = X6, 
         tot.Phen = X7, 
         flavan = X8, 
         nonFl.ph = X9, 
         proanth = X10, 
         col.Int = X11, 
         hue = X12, 
         dil = X13, 
         proline = X14) -> wine
```

    ## # A tibble: 178 x 14
    ##    class alcohol mall.Ac   ash alk.Ash magnes tot.Phen flavan nonFl.ph
    ##    <int>   <dbl>   <dbl> <dbl>   <dbl>  <int>    <dbl>  <dbl>    <dbl>
    ##  1     1    14.2    1.71  2.43    15.6    127     2.80   3.06    0.280
    ##  2     1    13.2    1.78  2.14    11.2    100     2.65   2.76    0.260
    ##  3     1    13.2    2.36  2.67    18.6    101     2.80   3.24    0.300
    ##  4     1    14.4    1.95  2.50    16.8    113     3.85   3.49    0.240
    ##  5     1    13.2    2.59  2.87    21.0    118     2.80   2.69    0.390
    ##  6     1    14.2    1.76  2.45    15.2    112     3.27   3.39    0.340
    ##  7     1    14.4    1.87  2.45    14.6     96     2.50   2.52    0.300
    ##  8     1    14.1    2.15  2.61    17.6    121     2.60   2.51    0.310
    ##  9     1    14.8    1.64  2.17    14.0     97     2.80   2.98    0.290
    ## 10     1    13.9    1.35  2.27    16.0     98     2.98   3.15    0.220
    ## # ... with 168 more rows, and 5 more variables: proanth <dbl>, col.Int
    ## #   <dbl>, hue <dbl>, dil <dbl>, proline <int>
…
``` r
tt.sets
```

    ## # A tibble: 100 x 7
    ##    train          test           .id   ind.tr      ind.te  train.s  test.s
    ##    <list>         <list>         <chr> <list>      <list>  <list>   <list>
    ##  1 <S3: resample> <S3: resample> 001   <int [124]> <int [~ <tibble~ <tibb~
    ##  2 <S3: resample> <S3: resample> 002   <int [124]> <int [~ <tibble~ <tibb~
    ##  3 <S3: resample> <S3: resample> 003   <int [124]> <int [~ <tibble~ <tibb~
    ##  4 <S3: resample> <S3: resample> 004   <int [124]> <int [~ <tibble~ <tibb~
    ##  5 <S3: resample> <S3: resample> 005   <int [124]> <int [~ <tibble~ <tibb~
    ##  6 <S3: resample> <S3: resample> 006   <int [124]> <int [~ <tibble~ <tibb~
    ##  7 <S3: resample> <S3: resample> 007   <int [124]> <int [~ <tibble~ <tibb~
    ##  8 <S3: resample> <S3: resample> 008   <int [124]> <int [~ <tibble~ <tibb~
    ##  9 <S3: resample> <S3: resample> 009   <int [124]> <int [~ <tibble~ <tibb~
    ## 10 <S3: resample> <S3: resample> 010   <int [124]> <int [~ <tibble~ <tibb~
    ## # ... with 90 more rows
…
